<?xml version="1.0" encoding="utf-8"?>
<!-- Generator: Adobe Illustrator 26.2.1, SVG Export Plug-In . SVG Version: 6.00 Build 0)  -->
<svg version="1.1" id="Ebene_1" xmlns="http://www.w3.org/2000/svg" xmlns:xlink="http://www.w3.org/1999/xlink" x="0px" y="0px"
	 viewBox="0 0 455.4 186" style="enable-background:new 0 0 455.4 186;" xml:space="preserve">
<style type="text/css">
	.st0{fill:#E72867;}
	.st1{fill:url(#SVGID_1_);}
	.st2{fill:url(#SVGID_00000065053929645682165250000009824252943880321706_);}
	.st3{fill:url(#SVGID_00000028306637974569967630000010874778445712791955_);}
</style>
<g>
	<g>
		<path class="st0" d="M170.7,100.1c0,0.7-0.3,1.3-0.9,1.8c-0.6,0.5-1.2,0.8-2,0.8c-0.5,0-1-0.1-1.4-0.4s-0.7-0.7-1-1.2l-1.5-3.3
			h-10.7l-1.5,3.3c-0.2,0.5-0.6,0.9-1,1.2c-0.4,0.3-0.9,0.4-1.4,0.4c-0.7,0-1.4-0.3-2-0.8s-0.9-1.1-0.9-1.8c0-0.4,0.1-0.8,0.3-1.2
			l8.7-17.9c0.3-0.6,0.7-1,1.3-1.4c0.6-0.3,1.2-0.5,1.9-0.5s1.3,0.2,1.8,0.5c0.6,0.3,1,0.8,1.3,1.4l8.7,17.9
			C170.6,99.3,170.7,99.7,170.7,100.1z M155.4,93.3h6.6l-3.3-7.3L155.4,93.3z"/>
	</g>
	<g>
		<path class="st0" d="M183.9,101.9c-0.5-0.5-0.7-1.2-0.7-2.1V82.2c0-0.9,0.2-1.6,0.7-2.1s1.2-0.7,2.1-0.7h6.7
			c2.6,0,4.8,0.5,6.6,1.4c1.9,0.9,3.3,2.3,4.3,4s1.5,3.8,1.5,6.2c0,2.4-0.5,4.5-1.5,6.2s-2.4,3.1-4.2,4c-1.9,0.9-4.1,1.4-6.7,1.4
			H186C185,102.6,184.4,102.4,183.9,101.9z M197.3,96.1c1.1-1.1,1.7-2.8,1.7-5.1c0-2.3-0.6-4-1.7-5.1c-1.1-1.1-2.8-1.6-5.1-1.6h-3
			v13.5h3C194.4,97.7,196.1,97.2,197.3,96.1z"/>
	</g>
	<g>
		<path class="st0" d="M222.4,101.5c-1.7-1-3.1-2.4-4-4.2c-0.9-1.8-1.4-3.9-1.4-6.3s0.5-4.5,1.4-6.3s2.3-3.2,4-4.1
			c1.7-1,3.8-1.4,6.2-1.4s4.4,0.5,6.2,1.4c1.7,1,3.1,2.3,4,4.1c0.9,1.8,1.4,3.9,1.4,6.3s-0.5,4.5-1.4,6.3s-2.3,3.2-4,4.2
			s-3.8,1.5-6.1,1.5C226.2,102.9,224.2,102.4,222.4,101.5z M232.7,96.4c1-1.2,1.5-3,1.5-5.4s-0.5-4.2-1.5-5.4
			c-1-1.2-2.4-1.8-4.1-1.8c-1.8,0-3.1,0.6-4.1,1.8c-1,1.2-1.5,3-1.5,5.4s0.5,4.2,1.5,5.4c1,1.2,2.4,1.8,4.1,1.8
			C230.4,98.3,231.7,97.7,232.7,96.4z"/>
	</g>
	<g>
		<path class="st0" d="M254.5,102c-0.5-0.5-0.8-1.3-0.8-2.2V82.2c0-0.9,0.2-1.6,0.7-2.1s1.2-0.7,2.1-0.7h8.4c2.6,0,4.6,0.7,6,2
			s2.1,3.1,2.1,5.5c0,2.3-0.7,4.1-2.2,5.4c-1.4,1.3-3.4,2-6,2h-5.2v5.6c0,0.9-0.3,1.7-0.8,2.2s-1.3,0.8-2.2,0.8
			C255.8,102.8,255,102.6,254.5,102z M266.6,89c0.5-0.5,0.8-1.2,0.8-2.1c0-1.9-1.1-2.9-3.3-2.9h-4.3v5.7h4.3
			C265.2,89.7,266.1,89.4,266.6,89z"/>
	</g>
	<g>
		<path class="st0" d="M292.5,102c-0.6-0.5-0.8-1.3-0.8-2.2V84.3h-4.6c-1,0-1.7-0.2-2.2-0.6s-0.7-1-0.7-1.9c0-0.8,0.2-1.4,0.7-1.8
			s1.2-0.6,2.2-0.6h15.4c1,0,1.7,0.2,2.2,0.6s0.7,1,0.7,1.8s-0.2,1.5-0.7,1.9s-1.2,0.6-2.2,0.6h-4.6v15.5c0,0.9-0.3,1.6-0.8,2.2
			c-0.6,0.5-1.3,0.8-2.2,0.8C293.8,102.8,293.1,102.5,292.5,102z"/>
	</g>
	<g>
		<path class="st0" d="M318.9,102c-0.5-0.5-0.8-1.3-0.8-2.2V82.2c0-0.9,0.3-1.6,0.8-2.2c0.5-0.5,1.3-0.8,2.2-0.8
			c0.9,0,1.7,0.3,2.2,0.8s0.8,1.3,0.8,2.2v17.6c0,0.9-0.3,1.7-0.8,2.2s-1.3,0.8-2.2,0.8C320.2,102.8,319.5,102.6,318.9,102z"/>
	</g>
	<g>
		<path class="st0" d="M341.1,100.4c-1.7-1.7-2.6-4.2-2.6-7.5V82.2c0-0.9,0.3-1.6,0.8-2.2c0.5-0.5,1.3-0.8,2.2-0.8
			c0.9,0,1.6,0.3,2.2,0.8c0.5,0.5,0.8,1.3,0.8,2.2v10.9c0,1.7,0.4,3,1.1,3.9s1.8,1.4,3.2,1.4c1.4,0,2.5-0.5,3.2-1.4s1.1-2.2,1.1-3.9
			V82.2c0-0.9,0.3-1.6,0.8-2.2c0.5-0.5,1.3-0.8,2.2-0.8c0.9,0,1.6,0.3,2.2,0.8c0.5,0.5,0.8,1.3,0.8,2.2v10.6c0,3.3-0.9,5.8-2.7,7.5
			c-1.8,1.7-4.3,2.6-7.7,2.6C345.4,102.9,342.8,102.1,341.1,100.4z"/>
	</g>
	<g>
		<path class="st0" d="M395.9,80.1c0.5,0.5,0.8,1.3,0.8,2.1v17.9c0,0.8-0.2,1.5-0.7,2s-1.1,0.7-1.9,0.7s-1.4-0.2-1.9-0.7
			s-0.7-1.1-0.7-2v-9.7l-3.8,6.9c-0.4,0.7-0.8,1.2-1.2,1.5c-0.4,0.3-0.9,0.4-1.5,0.4s-1.1-0.1-1.5-0.4s-0.8-0.8-1.2-1.5l-3.7-6.7
			v9.5c0,0.8-0.2,1.5-0.7,2s-1.1,0.7-1.9,0.7s-1.4-0.2-1.9-0.7s-0.7-1.1-0.7-2V82.2c0-0.9,0.3-1.6,0.8-2.1s1.2-0.8,2.1-0.8
			c0.6,0,1.1,0.2,1.6,0.5s0.9,0.8,1.2,1.5l6.1,11.4l6-11.4c0.7-1.3,1.6-2,2.8-2C394.7,79.2,395.4,79.5,395.9,80.1z"/>
	</g>
</g>
<g>
	<g>
		
			<linearGradient id="SVGID_1_" gradientUnits="userSpaceOnUse" x1="115.2105" y1="67.8341" x2="67.0237" y2="93.2156" gradientTransform="matrix(1 0 0 -1 0 188)">
			<stop  offset="0" style="stop-color:#4E1948"/>
			<stop  offset="1" style="stop-color:#1C1537"/>
		</linearGradient>
		<path class="st1" d="M98.8,118.2L98.8,118.2L88,94.9l-8.1,17.6l23.6,10.6l0,0C101.4,122.1,99.7,120.3,98.8,118.2z"/>
	</g>
	<g>
		
			<linearGradient id="SVGID_00000145743962791996125070000013581446879847130757_" gradientUnits="userSpaceOnUse" x1="84.6195" y1="125.0237" x2="111.146" y2="65.4821" gradientTransform="matrix(1 0 0 -1 0 188)">
			<stop  offset="0" style="stop-color:#A81255"/>
			<stop  offset="1" style="stop-color:#4E1948"/>
		</linearGradient>
		<path style="fill:url(#SVGID_00000145743962791996125070000013581446879847130757_);" d="M116.5,110.2L116.5,110.2L97,68
			c-0.1-0.1-0.1-0.3-0.2-0.4l-0.1-0.3l0,0c0-0.1-0.1-0.1-0.1-0.2c0.7,1.4,1.2,2.9,1.2,4.6c0,1.4-0.3,2.8-0.9,4l0,0L88,94.9
			l10.7,23.3l0,0c1.5,3.4,4.9,5.8,8.9,5.8c5.4,0,9.7-4.3,9.7-9.7C117.4,112.8,117,111.5,116.5,110.2z"/>
	</g>
	
		<linearGradient id="SVGID_00000124859595985751541310000017323660527589185197_" gradientUnits="userSpaceOnUse" x1="64.9584" y1="64.5073" x2="90.9124" y2="124.0489" gradientTransform="matrix(1 0 0 -1 0 188)">
		<stop  offset="0" style="stop-color:#E72867"/>
		<stop  offset="1" style="stop-color:#A81255"/>
	</linearGradient>
	<path style="fill:url(#SVGID_00000124859595985751541310000017323660527589185197_);" d="M88,62c-3.8,0-7,2.2-8.6,5.3l0,0l-0.1,0.3
		c-0.1,0.1-0.1,0.3-0.2,0.4l-19.5,42.2l0,0c-0.6,1.2-0.9,2.6-0.9,4.1c0,5.4,4.3,9.7,9.7,9.7c4,0,7.4-2.4,8.9-5.8l0,0l19.6-42.4l0,0
		c0.6-1.2,0.9-2.6,0.9-4C97.7,66.4,93.4,62,88,62z"/>
</g>
<g>
	<path class="st0" d="M400.2,77.8c-0.4-0.2-0.8-0.4-1.1-0.7s-0.6-0.7-0.7-1.1c-0.2-0.4-0.3-0.8-0.3-1.3c0-0.6,0.2-1.2,0.5-1.7
		s0.7-0.9,1.3-1.2s1.1-0.4,1.7-0.4c0.6,0,1.2,0.1,1.7,0.4s1,0.7,1.3,1.2c0.3,0.5,0.5,1.1,0.5,1.7c0,0.4-0.1,0.9-0.3,1.3
		c-0.2,0.4-0.4,0.8-0.7,1.1c-0.3,0.3-0.7,0.5-1.1,0.7c-0.4,0.2-0.9,0.3-1.3,0.3S400.6,78,400.2,77.8z M403,77.2c0.4-0.2,0.8-0.6,1-1
		c0.2-0.4,0.4-0.9,0.4-1.4s-0.1-1-0.4-1.4c-0.2-0.4-0.6-0.7-1-1s-0.9-0.4-1.4-0.4c-0.5,0-1,0.1-1.4,0.4c-0.4,0.2-0.8,0.6-1,1
		c-0.2,0.4-0.4,0.9-0.4,1.4s0.1,1,0.4,1.4c0.2,0.4,0.6,0.7,1,1c0.4,0.2,0.9,0.4,1.4,0.4C402.1,77.5,402.6,77.4,403,77.2z
		 M400.4,76.6c-0.1,0-0.1-0.1-0.1-0.2v-3c0-0.1,0-0.2,0.1-0.3s0.2-0.1,0.3-0.1h1.2c0.5,0,0.9,0.1,1.1,0.2s0.3,0.4,0.3,0.8
		c0,0.2,0,0.3-0.1,0.4c-0.1,0.1-0.1,0.2-0.2,0.3s-0.2,0.1-0.3,0.2c-0.1,0-0.3,0.1-0.4,0.1l0.9,1.2c0,0,0,0.1,0,0.1
		c0,0.1,0,0.1-0.1,0.2s-0.1,0.1-0.2,0.1c-0.1,0-0.2,0-0.2-0.1l-1-1.5h-0.7v1.4c0,0.1,0,0.2-0.1,0.2s-0.1,0.1-0.2,0.1
		S400.4,76.6,400.4,76.6z M401.2,74.5c0.1,0,0.1,0,0.2,0c0.1,0,0.1,0,0.2,0c0.1,0,0.1,0,0.2,0s0.1,0,0.1,0c0.1,0,0.2,0,0.3,0
		s0.1,0,0.2,0s0.1-0.1,0.2-0.1s0.1-0.1,0.1-0.2c0-0.1,0-0.2,0-0.3c0-0.2-0.1-0.3-0.2-0.4c-0.1-0.1-0.3-0.1-0.6-0.1h-0.9v1
		C400.9,74.5,401,74.5,401.2,74.5z"/>
</g>
</svg>
