<?xml version="1.0" encoding="utf-8"?>
<!-- Generator: Adobe Illustrator 26.2.1, SVG Export Plug-In . SVG Version: 6.00 Build 0)  -->
<svg version="1.1" id="Layer_1" xmlns="http://www.w3.org/2000/svg" xmlns:xlink="http://www.w3.org/1999/xlink" x="0px" y="0px"
	 viewBox="0 0 688 156" style="enable-background:new 0 0 688 156;" xml:space="preserve">
<style type="text/css">
	.st0{fill:#1F8197;}
	.st1{fill:#404040;}
</style>
<g>
	<path class="st0" d="M14.3,0.6l51.2,89.2h88.9c0.6-3.8,0.9-7.8,0.9-11.8c0-42.8-34.7-77.5-77.5-77.5H15.3C15,0.6,14.6,0.6,14.3,0.6
		z"/>
	<path class="st0" d="M0.3,29.2l34.8,60.7H0.3V29.2z"/>
	<path class="st0" d="M0.3,116.3v24.3c0,8.3,6.7,15.1,15.1,15.1h57.5l-22.6-39.4C50.3,116.3,0.3,116.3,0.3,116.3z"/>
	<path class="st0" d="M101.2,152c18.8-5.9,34.5-18.9,44.1-35.8H80.6L101.2,152z"/>
</g>
<g>
	<path class="st1" d="M194.3,124.3l37.4-92.8h14.7l37.2,92.8h-19.1l-28.8-76.2h6.6L213,124.3H194.3z M214.1,107V92H264v15H214.1z"/>
	<path class="st1" d="M312.3,125.8c-3.6,0-7.2-0.5-10.7-1.5c-3.4-1-6.6-2.3-9.5-4c-2.9-1.8-5.4-3.9-7.5-6.3l10.3-10.4
		c2.2,2.5,4.8,4.3,7.7,5.5c2.9,1.2,6.1,1.8,9.6,1.8c2.8,0,4.9-0.4,6.3-1.2c1.5-0.8,2.2-2,2.2-3.6c0-1.8-0.8-3.1-2.4-4.1
		c-1.5-1-3.5-1.8-5.9-2.4c-2.5-0.7-5.1-1.5-7.8-2.2c-2.6-0.9-5.2-2-7.7-3.3c-2.5-1.4-4.5-3.3-6.1-5.7c-1.5-2.5-2.2-5.6-2.2-9.5
		c0-4,1-7.6,2.9-10.6c2-3,4.9-5.3,8.6-7s8.1-2.5,13.1-2.5c5.3,0,10,0.9,14.3,2.8c4.3,1.8,7.9,4.6,10.7,8.3l-10.4,10.4
		c-1.9-2.4-4.1-4.1-6.6-5.1c-2.4-1.1-5-1.6-7.8-1.6c-2.6,0-4.5,0.4-5.9,1.2c-1.3,0.8-2,1.9-2,3.3c0,1.6,0.7,2.8,2.2,3.7
		c1.6,0.9,3.6,1.7,6.1,2.4c2.5,0.6,5,1.4,7.7,2.2c2.7,0.8,5.3,1.9,7.7,3.4c2.5,1.5,4.4,3.5,5.9,5.9c1.6,2.5,2.4,5.6,2.4,9.5
		c0,6.2-2.2,11.2-6.7,14.9C326.1,124,320,125.8,312.3,125.8z"/>
	<path class="st1" d="M375.8,125.6c-6.5,0-12.4-1.5-17.6-4.4s-9.3-6.9-12.3-11.9s-4.5-10.6-4.5-16.9s1.5-12,4.5-17s7.1-9,12.3-11.9
		c5.3-3,11.1-4.5,17.6-4.5c5,0,9.6,0.9,13.9,2.8c4.2,1.8,7.9,4.5,11,7.9L389.5,81c-1.7-1.8-3.7-3.3-6.1-4.2c-2.3-1-4.8-1.5-7.7-1.5
		c-3.2,0-6,0.7-8.6,2.2c-2.5,1.4-4.4,3.4-5.9,5.9c-1.4,2.5-2.1,5.4-2.1,8.8c0,3.3,0.7,6.3,2.1,9c1.5,2.6,3.5,4.6,5.9,6.1
		c2.6,1.4,5.4,2.1,8.6,2.1c2.9,0,5.5-0.5,7.8-1.5c2.4-1.1,4.4-2.6,6.1-4.5l11.2,11.2c-3.3,3.5-7,6.2-11.2,8.1
		C385.4,124.7,380.8,125.6,375.8,125.6z"/>
	<path class="st1" d="M407.4,124.3V60.5h17.4v63.8H407.4z M416.1,50.2c-2.8,0-5.1-0.9-7-2.8c-1.8-1.9-2.8-4.3-2.8-7.1
		c0-2.7,0.9-5.1,2.8-7c1.8-1.9,4.2-2.9,7-2.9c2.9,0,5.2,1,7,2.9c1.8,1.9,2.8,4.3,2.8,7c0,2.8-0.9,5.2-2.8,7.1
		C421.3,49.3,419,50.2,416.1,50.2z"/>
	<path class="st1" d="M436.8,124.3V60.5h17.4v63.8H436.8z M445.5,50.2c-2.8,0-5.1-0.9-7-2.8c-1.8-1.9-2.8-4.3-2.8-7.1
		c0-2.7,0.9-5.1,2.8-7c1.8-1.9,4.2-2.9,7-2.9c2.9,0,5.2,1,7,2.9c1.8,1.9,2.8,4.3,2.8,7c0,2.8-0.9,5.2-2.8,7.1
		C450.8,49.3,448.4,50.2,445.5,50.2z"/>
	<path class="st1" d="M479.4,124.3v-16H503c6,0,11.2-1.2,15.7-3.7c4.5-2.6,8-6.1,10.4-10.7c2.6-4.6,3.8-10,3.8-16.2
		c0-6.1-1.3-11.4-3.8-15.8c-2.6-4.6-6.1-8.1-10.6-10.6c-4.5-2.6-9.7-3.8-15.6-3.8h-24v-16h24.3c6.9,0,13.2,1.1,19,3.4
		c5.9,2.3,11,5.5,15.3,9.8c4.4,4.1,7.8,9,10.2,14.7c2.5,5.6,3.7,11.8,3.7,18.5s-1.2,12.9-3.7,18.6c-2.4,5.6-5.7,10.6-10,14.8
		c-4.3,4.1-9.4,7.3-15.3,9.6c-5.8,2.3-12.1,3.4-18.9,3.4C503.5,124.3,479.4,124.3,479.4,124.3z M467.1,124.3V31.5h18v92.8H467.1z"/>
	<path class="st1" d="M589.6,125.6c-6.4,0-12.2-1.5-17.4-4.4c-5.1-3-9.2-7-12.3-12c-3-5.1-4.5-10.8-4.5-17s1.5-11.8,4.5-16.8
		s7.1-9,12.3-11.9c5.2-3,11-4.5,17.3-4.5c6.5,0,12.3,1.5,17.4,4.5c5.2,2.9,9.3,6.9,12.3,11.9c3,4.9,4.5,10.5,4.5,16.8
		c0,6.2-1.5,11.9-4.5,17c-3,5-7.1,9-12.3,12C601.8,124.2,596,125.6,589.6,125.6z M589.4,109.5c3.3,0,6.1-0.7,8.6-2.1
		c2.6-1.5,4.5-3.5,5.8-6.1c1.4-2.6,2.1-5.6,2.1-9c0-3.3-0.7-6.3-2.1-8.8c-1.4-2.6-3.3-4.5-5.8-5.9c-2.5-1.5-5.3-2.2-8.6-2.2
		c-3.2,0-6,0.7-8.4,2.2c-2.5,1.4-4.4,3.4-5.8,5.9c-1.4,2.6-2.1,5.5-2.1,8.8s0.7,6.3,2.1,9c1.4,2.6,3.3,4.6,5.8,6.1
		C583.5,108.8,586.3,109.5,589.4,109.5z"/>
	<path class="st1" d="M662.6,125.6c-6.5,0-12.4-1.5-17.6-4.4c-5.2-2.9-9.3-6.9-12.3-11.9s-4.5-10.6-4.5-16.9s1.5-12,4.5-17
		s7.1-9,12.3-11.9c5.3-3,11.1-4.5,17.6-4.5c5,0,9.6,0.9,13.9,2.8c4.2,1.8,7.9,4.5,11,7.9L676.3,81c-1.7-1.8-3.7-3.3-6.1-4.2
		c-2.3-1-4.8-1.5-7.7-1.5c-3.2,0-6,0.7-8.6,2.2c-2.5,1.4-4.4,3.4-5.9,5.9c-1.4,2.5-2.1,5.4-2.1,8.8c0,3.3,0.7,6.3,2.1,9
		c1.5,2.6,3.5,4.6,5.9,6.1c2.6,1.4,5.4,2.1,8.6,2.1c2.9,0,5.5-0.5,7.8-1.5c2.4-1.1,4.4-2.6,6.1-4.5l11.2,11.2
		c-3.3,3.5-7,6.2-11.2,8.1C672.2,124.7,667.6,125.6,662.6,125.6z"/>
</g>
<g>
	<path class="st0" d="M148.2,140.8v1.8H145v8.7h-1.8v-8.7H140v-1.8H148.2z"/>
	<path class="st0" d="M148.9,151.2l2-10.5h1.5l2.6,6.7l2.6-6.7h1.5l2,10.5h-1.9l-1.3-6.5l-2.4,6.3h-1.3l-2.4-6.3l-1.3,6.5H148.9z"/>
</g>
</svg>
