<?xml version="1.0" encoding="utf-8"?>
<!-- Generator: Adobe Illustrator 26.2.1, SVG Export Plug-In . SVG Version: 6.00 Build 0)  -->
<svg version="1.1" id="Layer_1" xmlns="http://www.w3.org/2000/svg" xmlns:xlink="http://www.w3.org/1999/xlink" x="0px" y="0px"
	 viewBox="0 0 446.6 117" style="enable-background:new 0 0 446.6 117;" xml:space="preserve">
<style type="text/css">
	.st0{fill:#20AA4D;}
	.st1{fill:#002D62;}
	.st2{fill:#6D6E71;}
	.st3{fill:#6D6E71;stroke:#6D6E71;stroke-miterlimit:10;}
</style>
<g>
	<g>
		<path class="st0" d="M43.4,38.5c0.7,0.6,1.4,1.2,2.1,1.8v-1.8H43.4z"/>
		<path class="st0" d="M45.6,10.8c-0.1,0.1-0.3,0.2-0.4,0.3h0.4V10.8z"/>
		<path class="st0" d="M45.6,17.6v-5.1h-2c-1.2,1.1-2.2,2.4-3.1,3.9v1.2H45.6z"/>
		<path class="st0" d="M39.1,19.3c-0.6,1.5-0.9,3.1-1.1,4.8h1.1V19.3z"/>
		<rect x="40.5" y="25.5" class="st0" width="5.1" height="5.1"/>
		<path class="st0" d="M39.1,25.5H38c0,0,0,0,0,0c0,1.8,0.3,3.5,0.7,5.1h0.4V25.5z"/>
		<path class="st0" d="M52.1,7.9c-1.8,0.4-3.5,1.1-5.1,2v1.2h5.1V7.9z"/>
		<path class="st0" d="M45.6,37.1V32h-5.1v2.7c0.5,0.8,1.1,1.7,1.7,2.4H45.6z"/>
		<rect x="53.5" y="19" class="st0" width="5.1" height="5.1"/>
		<rect x="53.5" y="32" class="st0" width="5.1" height="5.1"/>
		<rect x="47" y="12.5" class="st0" width="5.1" height="5.1"/>
		<rect x="53.5" y="12.5" class="st0" width="5.1" height="5.1"/>
		<rect x="53.5" y="25.5" class="st0" width="5.1" height="5.1"/>
		<rect x="47" y="19" class="st0" width="5.1" height="5.1"/>
		<rect x="47" y="25.5" class="st0" width="5.1" height="5.1"/>
		<rect x="47" y="32" class="st0" width="5.1" height="5.1"/>
		<rect x="40.5" y="19" class="st0" width="5.1" height="5.1"/>
		<rect x="60" y="12.5" class="st0" width="5.1" height="5.1"/>
		<path class="st0" d="M65.1,9.9c-1.6-0.9-3.3-1.6-5.1-2v3.2h5.1V9.9z"/>
		<path class="st0" d="M47,38.5v2.7c1.6,0.9,3.3,1.6,5.1,2v-4.7H47z"/>
		<path class="st0" d="M66.4,38.5v1.8c0.8-0.5,1.5-1.1,2.1-1.8H66.4z"/>
		<path class="st0" d="M66.4,32v5.1h3.4c0.6-0.7,1.2-1.6,1.7-2.4V32H66.4z"/>
		<path class="st0" d="M53.5,11.1h5.1V7.7c-0.8-0.1-1.7-0.2-2.6-0.2c-0.9,0-1.7,0.1-2.6,0.2V11.1z"/>
		<path class="st0" d="M74.1,25.5h-1.1v5.1h0.4C73.8,29,74.1,27.3,74.1,25.5C74.1,25.5,74.1,25.5,74.1,25.5z"/>
		<rect x="60" y="32" class="st0" width="5.1" height="5.1"/>
		<rect x="60" y="19" class="st0" width="5.1" height="5.1"/>
		<rect x="60" y="25.5" class="st0" width="5.1" height="5.1"/>
		<path class="st0" d="M74,24.1c-0.1-1.7-0.5-3.3-1.1-4.8v4.8H74z"/>
		<path class="st0" d="M53.5,38.5v4.9c0.8,0.1,1.5,0.2,2.3,0.2h0.4c0.8,0,1.6-0.1,2.3-0.2v-4.9H53.5z"/>
		<rect x="66.4" y="19" class="st0" width="5.1" height="5.1"/>
		<path class="st0" d="M60,38.5v4.7c1.8-0.4,3.5-1.1,5.1-2v-2.7H60z"/>
		<rect x="66.4" y="25.5" class="st0" width="5.1" height="5.1"/>
		<path class="st0" d="M66.4,11.1h0.4c-0.1-0.1-0.3-0.2-0.4-0.3V11.1z"/>
		<path class="st0" d="M71.6,16.4c-0.8-1.4-1.9-2.7-3.1-3.9h-2v5.1h5.1V16.4z"/>
	</g>
	<g>
		<path class="st0" d="M27.5,37.1h3.8c-0.8-1.6-1.4-3.3-1.8-5.1h-2V37.1z"/>
		<rect x="27.5" y="58" class="st0" width="5.1" height="5.1"/>
		<rect x="27.5" y="45" class="st0" width="5.1" height="5.1"/>
		<path class="st0" d="M32.6,39.5c-0.2-0.3-0.4-0.7-0.6-1h-4.6v5.1h5.1V39.5z"/>
		<path class="st0" d="M27.5,30.6h1.7c-0.3-1.6-0.5-3.3-0.5-5.1c0,0,0,0,0,0h-1.2V30.6z"/>
		<path class="st0" d="M29.9,17.6c0.4-1.3,0.9-2.6,1.5-3.8c-1.4,0.8-2.7,1.8-3.9,2.7v1.1H29.9z"/>
		<path class="st0" d="M27.5,24.1h1.3c0.1-1.8,0.3-3.5,0.7-5.1h-2.1V24.1z"/>
		<rect x="27.5" y="51.5" class="st0" width="5.1" height="5.1"/>
		<rect x="34" y="58" class="st0" width="2.7" height="5.1"/>
		<path class="st0" d="M10,45c0,0.2-0.1,0.5-0.1,0.7h3.3V45H10z"/>
		<rect x="34" y="51.5" class="st0" width="2.7" height="5.1"/>
		<polyline class="st0" points="36.5,45 34,45 34,50.1 36.6,50.1 36.6,45.7 		"/>
		<path class="st0" d="M35.6,43.6c-0.6-0.6-1.1-1.3-1.6-2v2H35.6z"/>
		<rect x="21" y="45" class="st0" width="5.1" height="5.1"/>
		<rect x="14.5" y="38.5" class="st0" width="5.1" height="5.1"/>
		<path class="st0" d="M13.1,43.6v-5.1h-1.4c-0.6,1.7-1,3.4-1.4,5.1H13.1z"/>
		<rect x="14.5" y="32" class="st0" width="5.1" height="5.1"/>
		<path class="st0" d="M19.6,25.5h-1c-1.2,1.6-2.3,3.3-3.3,5.1h4.4V25.5z"/>
		<path class="st0" d="M13.1,34.8c-0.3,0.7-0.6,1.5-0.9,2.3h0.9V34.8z"/>
		<rect x="14.5" y="45" class="st0" width="5.1" height="0.7"/>
		<rect x="21" y="58" class="st0" width="5.1" height="5.1"/>
		<rect x="21" y="51.5" class="st0" width="5.1" height="5.1"/>
		<rect x="21" y="25.5" class="st0" width="5.1" height="5.1"/>
		<path class="st0" d="M26.1,24.1V19h-1.6c-1.2,1.1-2.4,2.3-3.5,3.6v1.5H26.1z"/>
		<rect x="21" y="38.5" class="st0" width="5.1" height="5.1"/>
		<rect x="21" y="32" class="st0" width="5.1" height="5.1"/>
	</g>
	<g>
		<polygon class="st0" points="91,64.5 87.5,64.5 88.7,69.6 91,69.6 		"/>
		<rect x="85.9" y="45" class="st0" width="5.1" height="5.1"/>
		<path class="st0" d="M85.9,24.1H91v-1.5c-1.1-1.2-2.3-2.4-3.5-3.6h-1.6V24.1z"/>
		<rect x="85.9" y="32" class="st0" width="5.1" height="5.1"/>
		<rect x="85.9" y="38.5" class="st0" width="5.1" height="5.1"/>
		<rect x="85.9" y="25.5" class="st0" width="5.1" height="5.1"/>
		<path class="st0" d="M89.1,71l0.8,3.2c0.2,0.7,0.3,1.3,0.4,1.9H91c0-0.2,0.1-0.4,0.1-0.6V71H89.1z"/>
		<path class="st0" d="M90.8,77.5h-0.3c0.1,0.9,0.1,1.5,0.1,1.5h0.1C90.7,78.9,90.7,78.4,90.8,77.5z"/>
		<polygon class="st0" points="92.4,56.6 95.1,56.6 96.3,51.5 92.4,51.5 		"/>
		<path class="st0" d="M98.9,45.7h3.3c0-0.2-0.1-0.5-0.1-0.7h-3.1V45.7z"/>
		<rect x="92.4" y="38.5" class="st0" width="5.1" height="5.1"/>
		<rect x="92.4" y="32" class="st0" width="5.1" height="5.1"/>
		<polygon class="st0" points="92.4,63.1 93.7,63.1 94.8,58 92.4,58 		"/>
		<path class="st0" d="M92.4,30.6h4.4c-1-1.8-2.1-3.5-3.3-5.1h-1V30.6z"/>
		<polygon class="st0" points="84.1,50.1 84.6,50.1 84.6,45 79.4,45 79.4,45.7 83,45.7 		"/>
		<polygon class="st0" points="91,63.1 91,58 85.9,58 87.2,63.1 		"/>
		<polygon class="st0" points="84.4,51.5 84.6,52.1 84.6,51.5 		"/>
		<path class="st0" d="M75.1,45c-0.2,0.2-0.4,0.5-0.7,0.7h3.7V45H75.1z"/>
		<polygon class="st0" points="92.4,64.5 92.4,68.9 93.4,64.5 		"/>
		<path class="st0" d="M98.9,37.1h0.9c-0.3-0.8-0.6-1.5-0.9-2.3V37.1z"/>
		<polygon class="st0" points="92.4,45 92.4,50.1 96.6,50.1 97.5,45.7 97.5,45.7 97.5,45 		"/>
		<path class="st0" d="M98.9,38.5v5.1h2.9c-0.4-1.7-0.9-3.4-1.4-5.1H98.9z"/>
		<path class="st0" d="M84.6,16.5c-1.3-1-2.6-1.9-3.9-2.7c0.6,1.2,1.1,2.5,1.5,3.8h2.5V16.5z"/>
		<path class="st0" d="M84.6,19h-2.1c0.4,1.6,0.7,3.4,0.7,5.1h1.3V19z"/>
		<path class="st0" d="M84.6,25.5h-1.2c0,0,0,0,0,0c0,1.7-0.2,3.4-0.5,5.1h1.7V25.5z"/>
		<path class="st0" d="M84.6,32h-2c-0.4,1.8-1,3.5-1.8,5.1h3.8V32z"/>
		<path class="st0" d="M84.6,43.6v-5.1H80c-0.2,0.3-0.4,0.7-0.6,1v4.1H84.6z"/>
		<rect x="85.9" y="51.5" class="st0" width="5.1" height="5.1"/>
		<path class="st0" d="M78.1,41.6c-0.5,0.7-1.1,1.4-1.6,2h1.6V41.6z"/>
	</g>
	<g>
		<polygon class="st0" points="66.4,63.1 69.7,63.1 71,58 66.4,58 		"/>
		<polygon class="st0" points="65.1,69.6 65.1,64.5 63.6,64.5 64.6,69.6 		"/>
		<polygon class="st0" points="65.1,58 62.3,58 63.3,63.1 65.1,63.1 		"/>
		<path class="st0" d="M72.9,46.9v3.2l1-4C73.6,46.4,73.3,46.6,72.9,46.9z"/>
		<path class="st0" d="M71.6,47.9c-1.2,0.8-2.4,1.5-3.7,2.2h3.7V47.9z"/>
		<polygon class="st0" points="66.4,69.6 68.1,69.6 69.4,64.5 66.4,64.5 		"/>
		<path class="st0" d="M67.8,71h-1.4v5.1h0.2c0.1-0.6,0.2-1.2,0.4-1.9L67.8,71z"/>
		<polygon class="st0" points="66.4,51.5 66.4,56.6 71.3,56.6 71.6,55.7 71.6,51.5 		"/>
		<polygon class="st0" points="64.9,71 65.1,71.7 65.1,71 		"/>
		<path class="st0" d="M62,56.6h3v-5.1h-0.6c-1.1,0.4-2.2,0.6-3.3,0.9L62,56.6z"/>
	</g>
	<g>
		<rect x="21" y="77.5" class="st1" width="5.1" height="5.1"/>
		<path class="st1" d="M26.1,84H21v0.9c1.3,1.5,2.7,2.9,4.3,4.2h0.9V84z"/>
		<polygon class="st1" points="51.1,58 47.8,58 47.8,63.1 52.1,63.1 52.1,62 		"/>
		<rect x="27.5" y="77.5" class="st1" width="5.1" height="5.1"/>
		<rect x="27.5" y="84" class="st1" width="5.1" height="5.1"/>
		<path class="st1" d="M27.5,90.5v0.4c1.6,1.2,3.3,2.4,5.1,3.4v-3.9H27.5z"/>
		<rect x="27.5" y="73.4" class="st1" width="5.1" height="2.7"/>
		<path class="st1" d="M52.1,96.9H47v2.8c1.7,0.3,3.4,0.6,5.1,0.7V96.9z"/>
		<path class="st1" d="M45.6,96.9h-5.1v1c1.7,0.6,3.4,1.1,5.1,1.5V96.9z"/>
		<path class="st1" d="M39.1,95.6v-4.3h-2.4v-0.8H34v4.6c0.3,0.2,0.6,0.3,0.9,0.5H39.1z"/>
		<rect x="21" y="73.4" class="st1" width="5.1" height="2.7"/>
		<rect x="47.8" y="64.5" class="st1" width="4.3" height="5.1"/>
		<rect x="34" y="73.4" class="st1" width="2.7" height="2.7"/>
		<rect x="47.8" y="84" class="st1" width="4.3" height="5.1"/>
		<path class="st1" d="M49.7,52.1c-0.6-0.2-1.3-0.3-1.9-0.5v5h3L49.7,52.1z"/>
		<rect x="47.8" y="77.5" class="st1" width="4.3" height="5.1"/>
		<rect x="47.8" y="71" class="st1" width="4.3" height="5.1"/>
		<rect x="34" y="77.5" class="st1" width="2.7" height="5.1"/>
		<polygon class="st1" points="52.1,95.6 52.1,90.5 47.8,90.5 47.8,91.2 47,91.2 47,95.6 		"/>
		<rect x="34" y="84" class="st1" width="2.7" height="5.1"/>
		<rect x="40.5" y="91.2" class="st1" width="5.1" height="4.3"/>
		<path class="st1" d="M39.1,96.9h-1.2c0.4,0.2,0.8,0.3,1.2,0.5V96.9z"/>
		<polygon class="st1" points="53.5,82.6 57.1,82.6 55.8,77.5 53.5,77.5 		"/>
		<rect x="53.5" y="90.5" class="st1" width="5.1" height="5.1"/>
		<polygon class="st1" points="53.5,89.1 58.6,89.1 58.6,88.7 57.4,84 53.5,84 		"/>
		<polygon class="st1" points="53.9,69.6 53.5,67.7 53.5,69.6 		"/>
		<path class="st1" d="M71.6,96.9h-5.1v2.4c1.7-0.4,3.5-0.9,5.1-1.4V96.9z"/>
		<path class="st1" d="M65.1,96.9H60v3.5c1.7-0.1,3.4-0.4,5.1-0.7V96.9z"/>
		<path class="st1" d="M72.9,96.9v0.4c0.4-0.1,0.7-0.3,1.1-0.4H72.9z"/>
		<path class="st1" d="M58.6,96.9h-5.1v3.6c0.8,0,1.7,0.1,2.6,0.1c0.9,0,1.7-0.1,2.6-0.1V96.9z"/>
		<path class="st1" d="M84.6,90.5h-5.1v3.8c1.8-1,3.5-2.2,5.1-3.4V90.5z"/>
		<path class="st1" d="M72.9,90.5v5.1h4.1c0.3-0.2,0.7-0.3,1-0.5v-4.6H72.9z"/>
		<polygon class="st1" points="79.7,69.6 79.4,68.5 79.4,69.6 		"/>
		<polygon class="st1" points="84.6,89 83.3,84 79.4,84 79.4,89.1 84.6,89.1 		"/>
		<polygon class="st1" points="53.5,76.1 55.5,76.1 54.3,71 53.5,71 		"/>
		<polygon class="st1" points="79.4,82.6 83,82.6 81.7,77.5 79.4,77.5 		"/>
		<polygon class="st1" points="78.1,77.5 75.2,77.5 73.9,82.6 78.1,82.6 		"/>
		<polygon class="st1" points="79.4,71 79.4,76.1 81.3,76.1 80.1,71 		"/>
		<polygon class="st1" points="78.1,84 73.5,84 72.9,86.3 72.9,89.1 78.1,89.1 		"/>
		<rect x="60" y="91.2" class="st1" width="5.1" height="4.3"/>
		<polygon class="st1" points="78.1,71 76.8,71 75.5,76.1 78.1,76.1 		"/>
		<rect x="66.4" y="91.2" class="st1" width="5.1" height="4.3"/>
		<path class="st1" d="M78.1,65.2c-0.1,0.9-0.3,1.9-0.6,3l-0.3,1.4h0.9V65.2z"/>
	</g>
</g>
<g>
	<g>
		<path class="st1" d="M132.2,68.2c-2.2-0.8-3.9-1.9-5.3-3.2c-1.4-1.4-2.4-3-3-4.8c-0.6-1.8-0.9-3.8-0.9-5.9c0-2.1,0.3-4.1,0.9-5.9
			c0.6-1.8,1.6-3.4,3-4.8c1.4-1.4,3.1-2.4,5.3-3.3c2.2-0.8,4.8-1.2,7.9-1.2h11.4c3.1,0,5.7,0.4,7.9,1.2c2.2,0.8,3.9,1.9,5.3,3.3
			c1.4,1.4,2.4,3,3,4.8c0.6,1.8,0.9,3.8,0.9,5.9c0,2.1-0.3,4.1-0.9,5.9c-0.6,1.8-1.6,3.4-3,4.8c-1.4,1.4-3.1,2.4-5.3,3.2
			c-2.2,0.8-4.8,1.2-7.9,1.2h-11.4C137,69.4,134.4,69,132.2,68.2z M156.3,62c1.3-0.4,2.3-1,3.1-1.8c0.8-0.8,1.3-1.7,1.6-2.7
			c0.3-1,0.5-2.1,0.5-3.3c0-1.2-0.1-2.3-0.5-3.3c-0.3-1-0.8-1.9-1.6-2.7c-0.8-0.8-1.8-1.4-3.1-1.8c-1.3-0.4-2.9-0.7-4.9-0.7h-11.3
			c-2,0-3.7,0.2-5,0.7c-1.3,0.4-2.3,1-3.1,1.8c-0.8,0.8-1.3,1.7-1.6,2.7c-0.3,1-0.5,2.1-0.5,3.3c0,1.2,0.1,2.3,0.5,3.3
			c0.3,1,0.8,1.9,1.6,2.7c0.8,0.8,1.8,1.4,3.1,1.8c1.3,0.4,2.9,0.7,4.9,0.7h11.3C153.4,62.7,155,62.5,156.3,62z"/>
		<path class="st1" d="M203.1,39.5c2,0,3.8,0.3,5.2,0.8c1.4,0.5,2.6,1.2,3.5,2.1c0.9,0.9,1.5,2,2,3.2c0.4,1.2,0.6,2.5,0.6,3.8
			c0,1.4-0.2,2.7-0.6,3.9c-0.4,1.2-1.1,2.2-2,3.1c-0.9,0.9-2,1.6-3.5,2.1c-1.4,0.5-3.1,0.8-5.2,0.8h-21.9V69h-6.6V39.5H203.1z
			 M181.2,52.6h21.7c0.9,0,1.7-0.1,2.3-0.3c0.6-0.2,1-0.4,1.4-0.7c0.3-0.3,0.5-0.6,0.6-1c0.1-0.4,0.2-0.8,0.2-1.2
			c0-0.4-0.1-0.8-0.2-1.2c-0.1-0.4-0.3-0.7-0.6-1c-0.3-0.3-0.8-0.5-1.4-0.7c-0.6-0.2-1.3-0.3-2.3-0.3h-21.7V52.6z"/>
		<path class="st1" d="M256.8,39.5v6.7h-31.4v5h27.6v6.1h-27.6v5h31.4V69h-38V39.5H256.8z"/>
		<path class="st1" d="M269.6,69H263V39.5h6.3l27.7,20.8V39.5h6.6V69h-6.3l-27.7-20.8V69z"/>
		<path class="st0" d="M317.8,57.6V69h-6.6V39.5h6.6v11.4H345V39.5h6.6V69H345V57.6H317.8z"/>
		<path class="st0" d="M370.7,69l-15.1-29.5h8l9.6,20.2l9.8-20.2h4.9l9.8,20.2l9.6-20.2h8L400.3,69h-4.9l-9.9-20.2L375.6,69H370.7z"
			/>
	</g>
</g>
<g>
	<path class="st2" d="M169.2,78.6h7.2c0.4,0,0.7,0.1,1,0.4c0.3,0.3,0.4,0.6,0.4,1v2.5c0,0.4-0.1,0.7-0.4,1c-0.3,0.3-0.6,0.4-1,0.4
		h-5.8c-0.1,0-0.2,0-0.5,0v3.3h-1V78.6z M176.9,82.6V80c0-0.1,0-0.2-0.1-0.3c-0.1-0.1-0.2-0.1-0.3-0.1h-5.8c-0.1,0-0.2,0-0.3,0.1
		c-0.1,0.1-0.1,0.2-0.1,0.3v2.5c0,0.1,0,0.2,0.1,0.3c0.1,0.1,0.2,0.1,0.3,0.1h5.8c0.1,0,0.2,0,0.3-0.1
		C176.9,82.8,176.9,82.7,176.9,82.6z"/>
	<path class="st2" d="M189.3,80v2.5c0,0.4-0.1,0.7-0.4,1c-0.3,0.3-0.6,0.4-1,0.4h-1.3l2.7,3.2h-1.3l-2.7-3.2h-3.2
		c-0.1,0-0.2,0-0.5,0v3.3h-1v-8.6h7.2c0.4,0,0.7,0.1,1,0.4C189.1,79.3,189.3,79.6,189.3,80z M182.1,83h5.8c0.1,0,0.2,0,0.3-0.1
		c0.1-0.1,0.1-0.2,0.1-0.3V80c0-0.1,0-0.2-0.1-0.3c-0.1-0.1-0.2-0.1-0.3-0.1h-5.8c-0.1,0-0.2,0-0.3,0.1c-0.1,0.1-0.1,0.2-0.1,0.3
		v2.5c0,0.1,0,0.2,0.1,0.3C181.8,83,181.9,83,182.1,83z"/>
	<path class="st2" d="M193.9,78.6h5.8c0.4,0,0.7,0.1,1,0.4c0.3,0.3,0.4,0.6,0.4,1v5.8c0,0.4-0.1,0.7-0.4,1c-0.3,0.3-0.6,0.4-1,0.4
		h-5.8c-0.4,0-0.7-0.1-1-0.4c-0.3-0.3-0.4-0.6-0.4-1V80c0-0.4,0.1-0.7,0.4-1C193.1,78.7,193.5,78.6,193.9,78.6z M193.9,86.3h5.8
		c0.1,0,0.2,0,0.3-0.1c0.1-0.1,0.1-0.2,0.1-0.3V80c0-0.1,0-0.2-0.1-0.3c-0.1-0.1-0.2-0.1-0.3-0.1h-5.8c-0.1,0-0.2,0-0.3,0.1
		c-0.1,0.1-0.1,0.2-0.1,0.3v5.8c0,0.1,0,0.2,0.1,0.3C193.6,86.2,193.8,86.3,193.9,86.3z"/>
	<path class="st2" d="M209.6,86.3l4.4-7.7h1.1l-5,8.6h-1.1l-5-8.6h1.1L209.6,86.3z"/>
	<path class="st2" d="M226.2,78.6v1h-6.9v2.9h5.6v1h-5.6v2.9h6.9v1h-7.9v-8.6H226.2z"/>
	<path class="st2" d="M237.1,86.1v-7.5h1v8.6h-1.3l-6.3-7.5v7.5h-1v-8.6h1.3L237.1,86.1z"/>
	<path class="st2" d="M246.5,78.6h7.2c0.4,0,0.7,0.1,1,0.4c0.3,0.3,0.4,0.6,0.4,1v2.5c0,0.4-0.1,0.7-0.4,1c-0.3,0.3-0.6,0.4-1,0.4
		h-5.8c-0.1,0-0.2,0-0.5,0v3.3h-1V78.6z M254.1,82.6V80c0-0.1,0-0.2-0.1-0.3c-0.1-0.1-0.2-0.1-0.3-0.1h-5.8c-0.1,0-0.2,0-0.3,0.1
		c-0.1,0.1-0.1,0.2-0.1,0.3v2.5c0,0.1,0,0.2,0.1,0.3c0.1,0.1,0.2,0.1,0.3,0.1h5.8c0.1,0,0.2,0,0.3-0.1
		C254.1,82.8,254.1,82.7,254.1,82.6z"/>
	<path class="st2" d="M266.5,80v2.5c0,0.4-0.1,0.7-0.4,1c-0.3,0.3-0.6,0.4-1,0.4h-1.3l2.7,3.2h-1.3l-2.7-3.2h-3.2
		c-0.1,0-0.2,0-0.5,0v3.3h-1v-8.6h7.2c0.4,0,0.7,0.1,1,0.4C266.4,79.3,266.5,79.6,266.5,80z M259.3,83h5.8c0.1,0,0.2,0,0.3-0.1
		c0.1-0.1,0.1-0.2,0.1-0.3V80c0-0.1,0-0.2-0.1-0.3c-0.1-0.1-0.2-0.1-0.3-0.1h-5.8c-0.1,0-0.2,0-0.3,0.1c-0.1,0.1-0.1,0.2-0.1,0.3
		v2.5c0,0.1,0,0.2,0.1,0.3C259.1,83,259.2,83,259.3,83z"/>
	<path class="st2" d="M271.1,78.6h5.8c0.4,0,0.7,0.1,1,0.4c0.3,0.3,0.4,0.6,0.4,1v5.8c0,0.4-0.1,0.7-0.4,1c-0.3,0.3-0.6,0.4-1,0.4
		h-5.8c-0.4,0-0.7-0.1-1-0.4c-0.3-0.3-0.4-0.6-0.4-1V80c0-0.4,0.1-0.7,0.4-1C270.4,78.7,270.7,78.6,271.1,78.6z M271.1,86.3h5.8
		c0.1,0,0.2,0,0.3-0.1c0.1-0.1,0.1-0.2,0.1-0.3V80c0-0.1,0-0.2-0.1-0.3c-0.1-0.1-0.2-0.1-0.3-0.1h-5.8c-0.1,0-0.2,0-0.3,0.1
		c-0.1,0.1-0.1,0.2-0.1,0.3v5.8c0,0.1,0,0.2,0.1,0.3C270.9,86.2,271,86.3,271.1,86.3z"/>
	<path class="st2" d="M290.2,79.6H283c-0.1,0-0.2,0-0.3,0.1c-0.1,0.1-0.1,0.2-0.1,0.3v5.8c0,0.1,0,0.2,0.1,0.3
		c0.1,0.1,0.2,0.1,0.3,0.1h7.2v1H283c-0.4,0-0.7-0.1-1-0.4c-0.3-0.3-0.4-0.6-0.4-1V80c0-0.4,0.1-0.7,0.4-1c0.3-0.3,0.6-0.4,1-0.4
		h7.2V79.6z"/>
	<path class="st2" d="M301.3,78.6v1h-6.9v2.9h5.6v1h-5.6v2.9h6.9v1h-7.9v-8.6H301.3z"/>
	<path class="st2" d="M313,80v0.3h-1V80c0-0.1,0-0.2-0.1-0.3c-0.1-0.1-0.2-0.1-0.3-0.1h-5.8c-0.1,0-0.2,0-0.3,0.1
		c-0.1,0.1-0.1,0.2-0.1,0.3V82c0,0.1,0,0.2,0.1,0.3c0.1,0.1,0.2,0.1,0.3,0.1h5.8c0.4,0,0.7,0.1,1,0.4c0.3,0.3,0.4,0.6,0.4,1v1.9
		c0,0.4-0.1,0.7-0.4,1c-0.3,0.3-0.6,0.4-1,0.4h-5.8c-0.4,0-0.7-0.1-1-0.4c-0.3-0.3-0.4-0.6-0.4-1v-0.3h1v0.3c0,0.1,0,0.2,0.1,0.3
		c0.1,0.1,0.2,0.1,0.3,0.1h5.8c0.1,0,0.2,0,0.3-0.1c0.1-0.1,0.1-0.2,0.1-0.3v-1.9c0-0.1,0-0.2-0.1-0.3c-0.1-0.1-0.2-0.1-0.3-0.1
		h-5.8c-0.4,0-0.7-0.1-1-0.4c-0.3-0.3-0.4-0.6-0.4-1V80c0-0.4,0.1-0.7,0.4-1c0.3-0.3,0.6-0.4,1-0.4h5.8c0.4,0,0.7,0.1,1,0.4
		C312.9,79.3,313,79.6,313,80z"/>
	<path class="st2" d="M324.8,80v0.3h-1V80c0-0.1,0-0.2-0.1-0.3c-0.1-0.1-0.2-0.1-0.3-0.1h-5.8c-0.1,0-0.2,0-0.3,0.1
		c-0.1,0.1-0.1,0.2-0.1,0.3V82c0,0.1,0,0.2,0.1,0.3c0.1,0.1,0.2,0.1,0.3,0.1h5.8c0.4,0,0.7,0.1,1,0.4c0.3,0.3,0.4,0.6,0.4,1v1.9
		c0,0.4-0.1,0.7-0.4,1c-0.3,0.3-0.6,0.4-1,0.4h-5.8c-0.4,0-0.7-0.1-1-0.4c-0.3-0.3-0.4-0.6-0.4-1v-0.3h1v0.3c0,0.1,0,0.2,0.1,0.3
		c0.1,0.1,0.2,0.1,0.3,0.1h5.8c0.1,0,0.2,0,0.3-0.1c0.1-0.1,0.1-0.2,0.1-0.3v-1.9c0-0.1,0-0.2-0.1-0.3c-0.1-0.1-0.2-0.1-0.3-0.1
		h-5.8c-0.4,0-0.7-0.1-1-0.4c-0.3-0.3-0.4-0.6-0.4-1V80c0-0.4,0.1-0.7,0.4-1c0.3-0.3,0.6-0.4,1-0.4h5.8c0.4,0,0.7,0.1,1,0.4
		C324.7,79.3,324.8,79.6,324.8,80z"/>
	<path class="st2" d="M329.4,78.6h5.8c0.4,0,0.7,0.1,1,0.4c0.3,0.3,0.4,0.6,0.4,1v5.8c0,0.4-0.1,0.7-0.4,1c-0.3,0.3-0.6,0.4-1,0.4
		h-5.8c-0.4,0-0.7-0.1-1-0.4c-0.3-0.3-0.4-0.6-0.4-1V80c0-0.4,0.1-0.7,0.4-1C328.7,78.7,329,78.6,329.4,78.6z M329.4,86.3h5.8
		c0.1,0,0.2,0,0.3-0.1c0.1-0.1,0.1-0.2,0.1-0.3V80c0-0.1,0-0.2-0.1-0.3c-0.1-0.1-0.2-0.1-0.3-0.1h-5.8c-0.1,0-0.2,0-0.3,0.1
		c-0.1,0.1-0.1,0.2-0.1,0.3v5.8c0,0.1,0,0.2,0.1,0.3C329.2,86.2,329.3,86.3,329.4,86.3z"/>
	<path class="st2" d="M348.5,80v2.5c0,0.4-0.1,0.7-0.4,1c-0.3,0.3-0.6,0.4-1,0.4h-1.3l2.7,3.2h-1.3l-2.7-3.2h-3.2
		c-0.1,0-0.2,0-0.5,0v3.3h-1v-8.6h7.2c0.4,0,0.7,0.1,1,0.4C348.4,79.3,348.5,79.6,348.5,80z M341.3,83h5.8c0.1,0,0.2,0,0.3-0.1
		c0.1-0.1,0.1-0.2,0.1-0.3V80c0-0.1,0-0.2-0.1-0.3c-0.1-0.1-0.2-0.1-0.3-0.1h-5.8c-0.1,0-0.2,0-0.3,0.1c-0.1,0.1-0.1,0.2-0.1,0.3
		v2.5c0,0.1,0,0.2,0.1,0.3C341.1,83,341.2,83,341.3,83z"/>
	<path class="st2" d="M356.9,87.2v-8.6h1v8.6H356.9z"/>
	<path class="st2" d="M361.4,78.6h7.2c0.4,0,0.7,0.1,1,0.4c0.3,0.3,0.4,0.6,0.4,1v2.5c0,0.4-0.1,0.7-0.4,1c-0.3,0.3-0.6,0.4-1,0.4
		h-5.8c-0.1,0-0.2,0-0.5,0v3.3h-1V78.6z M369.1,82.6V80c0-0.1,0-0.2-0.1-0.3c-0.1-0.1-0.2-0.1-0.3-0.1h-5.8c-0.1,0-0.2,0-0.3,0.1
		c-0.1,0.1-0.1,0.2-0.1,0.3v2.5c0,0.1,0,0.2,0.1,0.3c0.1,0.1,0.2,0.1,0.3,0.1h5.8c0.1,0,0.2,0,0.3-0.1
		C369.1,82.8,369.1,82.7,369.1,82.6z"/>
</g>
<g>
	<path class="st1" d="M357.2,29.5v5.6h-7.7c-0.9,0-1.7-0.1-2.4-0.4c-0.7-0.2-1.2-0.6-1.6-1c-0.4-0.4-0.7-0.9-0.9-1.5
		c-0.2-0.6-0.3-1.2-0.3-1.8c0-0.6,0.1-1.2,0.3-1.8c0.2-0.6,0.5-1.1,0.9-1.5c0.4-0.4,1-0.7,1.6-1c0.7-0.2,1.5-0.4,2.4-0.4h7.1V28
		h-7.1c-0.6,0-1.1,0.1-1.5,0.2c-0.4,0.1-0.7,0.3-0.9,0.5c-0.2,0.2-0.4,0.5-0.5,0.8c-0.1,0.3-0.1,0.6-0.1,1c0,0.3,0,0.7,0.1,1
		c0.1,0.3,0.2,0.6,0.5,0.8c0.2,0.2,0.5,0.4,0.9,0.5c0.4,0.1,0.9,0.2,1.5,0.2h5.7v-1.6h-4v-1.9H357.2z"/>
	<path class="st1" d="M368.2,25.9c0.6,0,1.2,0.1,1.6,0.2c0.4,0.2,0.8,0.4,1.1,0.7c0.3,0.3,0.5,0.6,0.6,1c0.1,0.4,0.2,0.8,0.2,1.2
		c0,0.4-0.1,0.8-0.2,1.1c-0.1,0.3-0.3,0.7-0.5,0.9c-0.2,0.3-0.5,0.5-0.9,0.7c-0.4,0.2-0.8,0.3-1.3,0.3l4.4,3.1h-3.4l-4.1-3.1h-4.2
		v3.1h-2.1v-9.2H368.2z M361.5,30h6.6c0.3,0,0.5,0,0.7-0.1c0.2-0.1,0.3-0.1,0.4-0.2c0.1-0.1,0.2-0.2,0.2-0.3c0-0.1,0.1-0.3,0.1-0.4
		c0-0.1,0-0.3-0.1-0.4c0-0.1-0.1-0.2-0.2-0.3c-0.1-0.1-0.3-0.2-0.4-0.2c-0.2-0.1-0.4-0.1-0.7-0.1h-6.6V30z"/>
	<path class="st1" d="M376.5,34.9c-0.7-0.3-1.2-0.6-1.7-1c-0.4-0.4-0.7-0.9-0.9-1.5c-0.2-0.6-0.3-1.2-0.3-1.9c0-0.7,0.1-1.3,0.3-1.9
		c0.2-0.6,0.5-1.1,0.9-1.5c0.4-0.4,1-0.8,1.7-1c0.7-0.2,1.5-0.4,2.5-0.4h3.6c1,0,1.8,0.1,2.5,0.4c0.7,0.3,1.2,0.6,1.7,1
		c0.4,0.4,0.7,0.9,0.9,1.5c0.2,0.6,0.3,1.2,0.3,1.9c0,0.7-0.1,1.3-0.3,1.9c-0.2,0.6-0.5,1.1-0.9,1.5c-0.4,0.4-1,0.8-1.7,1
		c-0.7,0.2-1.5,0.4-2.5,0.4H379C378,35.2,377.2,35.1,376.5,34.9z M384,32.9c0.4-0.1,0.7-0.3,1-0.6c0.2-0.2,0.4-0.5,0.5-0.8
		c0.1-0.3,0.1-0.7,0.1-1c0-0.4,0-0.7-0.1-1c-0.1-0.3-0.3-0.6-0.5-0.8c-0.2-0.2-0.6-0.4-1-0.6c-0.4-0.1-0.9-0.2-1.5-0.2H379
		c-0.6,0-1.1,0.1-1.6,0.2c-0.4,0.1-0.7,0.3-1,0.6c-0.2,0.2-0.4,0.5-0.5,0.8c-0.1,0.3-0.1,0.7-0.1,1c0,0.4,0,0.7,0.1,1
		c0.1,0.3,0.3,0.6,0.5,0.8c0.2,0.2,0.6,0.4,1,0.6c0.4,0.1,0.9,0.2,1.5,0.2h3.5C383.1,33.1,383.6,33.1,384,32.9z"/>
	<path class="st1" d="M391.7,31.8c0.1,0.3,0.2,0.5,0.5,0.7c0.2,0.2,0.5,0.4,0.9,0.5c0.4,0.1,0.9,0.2,1.4,0.2h2.8
		c0.6,0,1.1-0.1,1.4-0.2c0.4-0.1,0.7-0.3,0.9-0.5c0.2-0.2,0.4-0.4,0.5-0.7c0.1-0.3,0.1-0.6,0.1-0.9v-5h2.1v5c0,0.6-0.1,1.2-0.2,1.8
		c-0.2,0.5-0.4,1-0.8,1.4c-0.4,0.4-0.9,0.7-1.5,0.9c-0.6,0.2-1.4,0.3-2.4,0.3h-2.8c-0.9,0-1.7-0.1-2.4-0.3c-0.6-0.2-1.1-0.5-1.5-0.9
		c-0.4-0.4-0.7-0.9-0.8-1.4c-0.2-0.5-0.2-1.1-0.2-1.8v-5h2.1v5C391.6,31.2,391.6,31.5,391.7,31.8z"/>
	<path class="st1" d="M413.4,25.9c0.6,0,1.2,0.1,1.6,0.2c0.4,0.2,0.8,0.4,1.1,0.7c0.3,0.3,0.5,0.6,0.6,1c0.1,0.4,0.2,0.8,0.2,1.2
		c0,0.4-0.1,0.8-0.2,1.2c-0.1,0.4-0.3,0.7-0.6,1c-0.3,0.3-0.6,0.5-1.1,0.7c-0.4,0.2-1,0.2-1.6,0.2h-6.8v3h-2.1v-9.2H413.4z
		 M406.6,30h6.8c0.3,0,0.5,0,0.7-0.1c0.2-0.1,0.3-0.1,0.4-0.2c0.1-0.1,0.2-0.2,0.2-0.3c0-0.1,0.1-0.2,0.1-0.4c0-0.1,0-0.3-0.1-0.4
		c0-0.1-0.1-0.2-0.2-0.3c-0.1-0.1-0.2-0.2-0.4-0.2c-0.2-0.1-0.4-0.1-0.7-0.1h-6.8V30z"/>
</g>
<line class="st3" x1="123" y1="83.5" x2="162.6" y2="83.5"/>
<line class="st3" x1="375.8" y1="83.5" x2="415.4" y2="83.5"/>
<g>
	<path class="st1" d="M430.5,46.4c0,3.8-3,6.8-6.8,6.8c-3.8,0-6.8-3-6.8-6.8c0-3.8,3-6.9,6.8-6.9C427.4,39.5,430.5,42.6,430.5,46.4z
		 M418.3,46.4c0,3.1,2.3,5.6,5.4,5.6c3.1,0,5.4-2.5,5.4-5.6c0-3.1-2.3-5.6-5.4-5.6C420.6,40.7,418.3,43.3,418.3,46.4z M426.6,44.7
		c0,1.2-0.8,1.9-1.8,2.2l2.3,3.2h-1.8l-2-2.9h-0.8v2.9H421v-7.6h2.3C425.5,42.5,426.6,43.3,426.6,44.7z M422.5,46h0.9
		c1.1,0,1.6-0.3,1.6-1.2c0-0.7-0.5-1.1-1.7-1.1h-0.8V46z"/>
</g>
</svg>
