<?xml version="1.0" encoding="utf-8"?>
<!-- Generator: Adobe Illustrator 27.0.1, SVG Export Plug-In . SVG Version: 6.00 Build 0)  -->
<svg version="1.1" id="Layer_1" xmlns="http://www.w3.org/2000/svg" xmlns:xlink="http://www.w3.org/1999/xlink" x="0px" y="0px"
	 viewBox="0 0 430 136.3" style="enable-background:new 0 0 430 136.3;" xml:space="preserve">
<style type="text/css">
	.st0{fill:#874D9E;}
	.st1{fill:#9D6AAD;}
</style>
<g>
	<path d="M102.9,50.3c0-13.9,10.6-24.2,24.9-24.2c14.2,0,24.9,10.3,24.9,24.2S142,74.5,127.8,74.5C113.5,74.5,102.9,64.1,102.9,50.3
		z M149.1,50.3c0-12.1-9.2-21-21.3-21c-12.2,0-21.4,8.9-21.4,21c0,12.1,9.2,21,21.4,21C140,71.3,149.1,62.3,149.1,50.3z"/>
	<path d="M196.2,56.3c0,10.7-7.6,18.1-17.6,18.1c-6.3,0-11.6-3.1-14.5-8.4v21.4h-3.4V38.5h3.3v8.4c2.8-5.5,8.2-8.7,14.6-8.7
		C188.7,38.2,196.2,45.7,196.2,56.3z M192.8,56.3c0-8.9-6.2-15-14.4-15c-8.2,0-14.3,6.1-14.3,15s6.1,15,14.3,15
		C186.6,71.4,192.8,65.3,192.8,56.3z"/>
	<path d="M235,57.2h-30.7c0.3,8.5,6.6,14.2,15.1,14.2c4.5,0,8.7-1.6,11.4-5l2,2.3c-3.1,3.8-8.1,5.8-13.5,5.8
		c-10.8,0-18.4-7.5-18.4-18.1s7.3-18.1,17.1-18.1c9.8,0,17,7.4,17,18C235,56.5,235,56.8,235,57.2z M204.4,54.5h27.3
		c-0.5-7.7-6.1-13.3-13.7-13.3S204.9,46.7,204.4,54.5z"/>
	<path d="M275.5,53.3v20.8h-3.4V53.6c0-8.1-4.3-12.3-11.5-12.3c-8.4,0-13.5,5.4-13.5,13.9v19h-3.4V38.5h3.3v7.7c2.4-5,7.4-8,14.1-8
		C269.7,38.2,275.5,43.4,275.5,53.3z"/>
	<path d="M345.1,26.4l-21.3,47.8h-3.5L299,26.4h3.8l19.3,43.3l19.3-43.3H345.1z"/>
	<path d="M349.1,68l1.6-2.6c3.3,3.4,9.4,6,15.8,6c9.6,0,13.8-4.2,13.8-9.4c0-14.3-29.8-5.7-29.8-23.4c0-6.8,5.2-12.7,16.9-12.7
		c5.3,0,10.7,1.6,14.4,4.3l-1.3,2.8c-4-2.7-8.8-4-13.1-4c-9.3,0-13.5,4.3-13.5,9.6c0,14.3,29.8,5.9,29.8,23.2
		c0,6.8-5.4,12.6-17.2,12.6C359.4,74.5,352.6,71.8,349.1,68z"/>
	<path d="M425.6,74.2L409.2,52l-16.4,22.1h-4.1l18.4-24.7L390,26.4h4.1l15.2,20.6l15.2-20.6h3.9l-17.1,23.1l18.4,24.7H425.6z"/>
</g>
<g>
	<polygon class="st0" points="53.6,0.3 28.9,43.5 78.7,43.5 	"/>
	<polygon class="st1" points="28.9,43.5 53.6,0.3 3.7,0.3 	"/>
</g>
<g>
	<polygon class="st0" points="25.3,50.3 50.5,93.3 75.4,50 	"/>
	<polygon class="st1" points="50.5,93.3 25.3,50.3 0.5,93.6 	"/>
</g>
<g>
	<polygon class="st0" points="57,92.7 106.7,92.9 82.1,49.5 	"/>
	<polygon class="st1" points="106.7,92.9 57,92.7 81.6,136.1 	"/>
</g>
</svg>
