<?xml version="1.0" encoding="utf-8"?>
<!-- Generator: Adobe Illustrator 25.4.1, SVG Export Plug-In . SVG Version: 6.00 Build 0)  -->
<svg version="1.1" id="Ebene_1" xmlns="http://www.w3.org/2000/svg" xmlns:xlink="http://www.w3.org/1999/xlink" x="0px" y="0px"
	 viewBox="0 0 550.4 206.2" style="enable-background:new 0 0 550.4 206.2;" xml:space="preserve">
<style type="text/css">
	.st0{fill:#173057;}
	.st1{fill:#808285;}
</style>
<g>
	<path class="st0" d="M242.7,92.2c-1.7-3-4.1-5.4-7.2-7.1c-3.1-1.7-6.4-2.6-9.9-2.6c-4.8,0-9.1,1.7-12.9,5
		c-4.3,3.9-6.4,8.7-6.4,14.5c0,5.4,1.9,10,5.7,13.8c3.8,3.8,8.3,5.7,13.6,5.7c3.6,0,6.9-0.9,9.9-2.6c3-1.7,5.4-4.1,7.1-7.1
		c1.7-3.1,2.6-6.3,2.6-9.8C245.3,98.5,244.4,95.2,242.7,92.2 M233,109.8c-1.9,2-4.4,3-7.3,3c-2.9,0-5.3-1-7.2-3
		c-1.9-2-2.9-4.6-2.9-7.8c0-3.1,1-5.7,2.9-7.7c1.9-2,4.3-3,7.2-3c3,0,5.4,1,7.3,3c1.9,2,2.9,4.6,2.9,7.8S234.9,107.8,233,109.8"/>
	<path class="st0" d="M285.3,88c-3.4-3.7-7.5-5.5-12.4-5.5c-2.2,0-4.3,0.4-6.3,1.3c-2,0.8-3.8,2.1-5.5,3.8v-4.1h-9.2v50.7h9.2v-17.5
		c1.8,1.7,3.7,3,5.5,3.7c1.8,0.8,3.9,1.1,6,1.1c4.8,0,9-1.8,12.5-5.6c3.5-3.7,5.2-8.3,5.2-13.9C290.3,96.3,288.7,91.6,285.3,88
		 M278.1,109.9c-1.9,2.1-4.3,3.1-7.2,3.1c-2.9,0-5.4-1-7.3-3.1c-1.9-2.1-2.9-4.7-2.9-8c0-3.2,0.9-5.9,2.9-7.8c1.9-2,4.4-3,7.3-3
		c2.9,0,5.3,1,7.2,3c1.9,2.1,2.9,4.7,2.9,7.9C281.1,105.2,280.1,107.8,278.1,109.9"/>
	<path class="st0" d="M335.3,102.9c0-6.2-1.8-11.1-5.5-14.9c-3.7-3.7-8.4-5.6-14.3-5.6c-5.5,0-10.1,1.9-13.7,5.6
		c-3.6,3.8-5.5,8.5-5.5,14.1c0,5.5,1.8,10.1,5.5,13.8c3.7,3.7,8.4,5.5,14.2,5.5c3.8,0,7-0.7,9.7-2c2.7-1.3,5.1-3.4,7-6.2l-7.8-3.7
		c-2.5,2.4-5.5,3.7-9,3.7c-2.9,0-5.3-0.8-7.2-2.3c-1.9-1.6-3-3.7-3.5-6.3h29.9L335.3,102.9z M305.7,97.4c1.1-2.3,2.2-3.9,3.4-4.8
		c2-1.5,4.2-2.2,6.8-2.2c2.4,0,4.5,0.7,6.3,1.9c1.8,1.3,3,3,3.7,5H305.7z"/>
	<path class="st0" d="M372.5,86.3c-2.6-2.6-5.7-3.9-9.4-3.9c-1.8,0-3.6,0.3-5.3,1c-1.7,0.7-3.6,1.9-5.7,3.7v-3.8h-9.3v37.2h9.3
		v-14.9c0-3.9,0.1-6.4,0.4-7.5c0.5-2.2,1.5-4,2.8-5.2c1.3-1.3,3-1.9,4.8-1.9c1.5,0,2.7,0.4,3.7,1.1c1,0.8,1.7,1.9,2.1,3.3
		c0.4,1.5,0.6,4.4,0.6,8.8v16.3h9.2V96C375.8,91.7,374.7,88.5,372.5,86.3"/>
	<path class="st0" d="M415.8,75.5c-1.8-2.2-4.2-3.6-7-4.3c-2-0.5-5.9-0.8-11.6-0.8h-10v50.2h5V97.2h3.6c6.2,0,10.5-0.3,12.8-0.8
		c3.1-0.8,5.5-2.2,7.3-4.4c1.8-2.2,2.7-4.9,2.7-8.3C418.5,80.4,417.6,77.7,415.8,75.5 M412,88.4c-0.9,1.4-2.2,2.4-3.8,3
		c-1.6,0.6-4.1,0.9-7.6,0.9l-8.5-0.1v-17h8.8c3.4,0,5.8,0.3,7.3,0.9c1.5,0.6,2.7,1.6,3.6,3c0.9,1.4,1.4,2.9,1.4,4.6
		C413.3,85.5,412.8,87.1,412,88.4"/>
	<path class="st0" d="M438.1,70.3h-1.2l-23.7,50.2h5.6l7.8-16.5h21.6l7.9,16.5h5.4L438.1,70.3z M428.8,99.2l8.6-18.2l8.6,18.2H428.8
		z"/>
	<path class="st0" d="M491,100.8c-1.6-2.5-4.6-5.4-9-8.6c-3.7-2.7-5.8-4.4-6.5-5c-1.2-1.2-2-2.3-2.5-3.3c-0.5-1-0.7-2.1-0.7-3.2
		c0-1.8,0.7-3.3,1.9-4.5c1.3-1.2,2.9-1.8,5-1.8c1.6,0,3,0.4,4.3,1.2c1.4,0.8,3,2.4,4.8,4.9l4.1-3.1c-2.3-3.1-4.5-5.3-6.5-6.5
		c-2.1-1.2-4.3-1.7-6.6-1.7c-2.2,0-4.3,0.5-6.2,1.5c-1.9,1-3.4,2.5-4.4,4.3c-1,1.8-1.6,3.8-1.6,6c0,2.8,0.9,5.3,2.7,7.7
		c1,1.4,3.6,3.7,7.8,6.9c4.2,3.1,7,5.8,8.6,8.1c1.1,1.6,1.7,3.3,1.7,5c0,1.5-0.4,2.9-1.2,4.2c-0.8,1.3-1.9,2.4-3.4,3.1
		c-1.5,0.8-3.1,1.2-4.7,1.2c-3.9,0-7.4-2.8-10.4-8.3l-4.3,2.6c2.1,3.8,4.4,6.5,6.9,8.2c2.5,1.6,5.3,2.4,8.3,2.4c4,0,7.3-1.4,10.1-4
		c2.8-2.7,4.1-5.8,4.1-9.5C493.4,105.8,492.6,103.3,491,100.8"/>
	<path class="st0" d="M526.9,100.8c-1.6-2.5-4.6-5.4-9-8.6c-3.7-2.7-5.8-4.4-6.5-5c-1.2-1.2-2-2.3-2.5-3.3c-0.5-1-0.7-2.1-0.7-3.2
		c0-1.8,0.7-3.3,1.9-4.5c1.3-1.2,2.9-1.8,5-1.8c1.6,0,3,0.4,4.3,1.2c1.3,0.8,3,2.4,4.8,4.9l4.1-3.1c-2.3-3.1-4.5-5.3-6.5-6.5
		c-2.1-1.2-4.3-1.7-6.7-1.7c-2.2,0-4.3,0.5-6.2,1.5c-1.9,1-3.4,2.5-4.4,4.3c-1,1.8-1.6,3.8-1.6,6c0,2.8,0.9,5.3,2.7,7.7
		c1,1.4,3.6,3.7,7.8,6.9c4.2,3.1,7,5.8,8.6,8.1c1.1,1.6,1.7,3.3,1.7,5c0,1.5-0.4,2.9-1.2,4.2c-0.8,1.3-1.9,2.4-3.4,3.1
		c-1.5,0.8-3.1,1.2-4.7,1.2c-3.9,0-7.4-2.8-10.4-8.3l-4.3,2.6c2.1,3.8,4.4,6.5,6.9,8.2c2.5,1.6,5.2,2.4,8.3,2.4
		c3.9,0,7.3-1.4,10.1-4c2.8-2.7,4.2-5.8,4.2-9.5C529.3,105.8,528.5,103.3,526.9,100.8"/>
	<path class="st1" d="M53.7,158.1L53.7,158.1l92.6-99.5l-99.5,92.6l-8,7.4l0,0l0,0c1.2,1.3,2.4,2.6,3.6,3.9c1.3,1.3,2.5,2.5,3.9,3.6
		L53.7,158.1L53.7,158.1z"/>
	<path class="st0" d="M175.8,17.1l-20.4,16.3l-8.8,7L33.7,130.2l-8.8,7.1c-1.5-3.4-2.9-7-3.9-10.5C12.1,97.3,19.2,64,42.4,40.9
		c27.8-27.8,70.1-32.6,102.8-14.2l-10,7.1c-27.9-13.1-62.1-8.2-85.1,14.8c-16.6,16.5-23.7,39-21.5,60.7c0.2,2.4,0.6,5,1.1,7.4
		c0.2,1.1,0.5,2.2,0.8,3.3l114.3-80.9l9.4-6.7L175.8,17.1z"/>
	<path class="st0" d="M163.9,162.4c-23.2,23.2-56.4,30.3-85.8,21.4c-3.6-1.1-7.1-2.4-10.6-4l7.1-8.8l89.8-112.8l7-8.8L187.8,29
		l-15.3,21.7l-6.7,9.4L84.8,174.4c3.5,0.9,7.1,1.5,10.8,1.8c21.6,2.3,44.1-5,60.6-21.5c23-23,27.9-57.3,14.8-85.1l7.1-10
		C196.5,92.3,191.8,134.6,163.9,162.4"/>
</g>
<g>
	<path d="M527.7,60.8v0.7h-1.4v3.6h-0.9v-3.6h-1.4v-0.7H527.7z M532.4,65.1l-0.2-2.6c0-0.3,0-0.8,0-1.2h0c-0.1,0.4-0.2,0.9-0.4,1.3
		L531,65h-0.9l-0.8-2.5c-0.1-0.3-0.2-0.8-0.3-1.2h0c0,0.4,0,0.8,0,1.2l-0.2,2.6H528l0.3-4.4h1.3l0.8,2.1c0.1,0.3,0.2,0.7,0.3,1.1h0
		c0.1-0.4,0.2-0.8,0.3-1.1l0.8-2.1h1.2l0.3,4.4H532.4z"/>
</g>
</svg>
