{{ $projectPages := .Pages }}
{{ $len := len $projectPages }}
[
    {{ range $index, $element := $projectPages }}
    {
        {{ $logoPath := .Params.project_logo | absURL }}
        {{ $project_topic := .Params.project_topic | default "Other Tools" }}

        "name": {{ .Title | jsonify }},
        "website_url": "{{ .Permalink }}",
        "summary": {{ .Summary | jsonify }},
        "logo": "{{ $logoPath }}",
        "version": {{ .Params.project_type | jsonify }},
        "tags": {{ .Params.tags | jsonify }},
        "project_topic": {{ $project_topic | jsonify }},
        "funding_bodies": {{ .Params.funding_bodies | jsonify }},
        "releases": []

    }{{ if ne $index (sub $len 1) }},{{ end }}
    {{ end }}
]
